[gd_resource type="ShaderMaterial" load_steps=2 format=2]

[ext_resource path="res://fog.shader" type="Shader" id=1]

[resource]
shader = ExtResource( 1 )
shader_param/color = Vector3( 0.25, 0.25, 0.25 )
shader_param/OCTAVES = 4
